215450 745153 509
336836 580050 470
406444 212637 443
803840 762175 468
965208 325361 525
979882 895498 507
612198 992559 525
349393 266244 441
383904 269868 441
722005 842528 525
242017 651249 509
441934 390866 449
117033 983252 525
922880 519548 525
129518 200856 383
545010 539124 408
72165 780464 509
321710 154306 443
295831 477568 449
714270 887063 525
11450 51176 324
797249 379417 509
340784 33485 443
520448 974644 525
780725 167811 509
394398 827874 509
673398 76274 509
658402 316326 509
570934 994366 525
785282 768978 437
766624 530765 509
685465 285293 509
570546 55371 470
786784 19592 509
531238 92771 470
5132 418502 449
32892 870748 525
312449 308781 384
939061 417953 525
278332 898162 525
322603 344071 384
122712 938811 525
469158 950837 525
682075 249897 509
362765 724316 509
925534 881970 476
332809 420749 449
154959 474528 449
456214 479556 444
787657 16864 509
425064 87766 449
677109 509626 509
786776 146252 509
635702 545319 509
84219 816073 509
183099 24645 383
898346 353147 525
416493 285144 449
158023 456444 449
96826 214614 383
68375 189275 383
966881 687525 525
673106 74127 509
807648 721261 468
832570 987304 525
838930 658382 525
834191 280326 509
651840 799247 504
419742 690061 509
489916 262763 449
290464 873861 525
197018 157277 370
297050 403704 441
381162 665391 509
103938 366920 443
245995 274062 407
824586 910018 525
256210 947522 525
565347 754044 509
972691 686518 525
667693 403253 509
995371 332603 525
538433 978418 525
341181 260524 407
931506 110638 525
467717 234305 449
120699 819537 509
230797 687646 509
23925 667741 509
767256 702840 504
990547 642631 525
760786 124017 509
378638 861533 525
176897 902386 525
225284 563260 470
570268 343818 470
574113 262418 470
362306 484628 449
860783 13525 525
304518 552679 470
51901 48066 309
425074 854800 525
121603 989650 525
393298 510703 449
232913 157698 443
442316 96028 449
547512 664081 509
895880 269287 525
688590 792185 504
750881 903904 525
680166 368644 509
834101 664430 504
361456 14767 443
650117 521928 509
674519 889063 525
933960 555425 525
101794 658827 509
563731 486534 470
464001 899139 525
921272 931081 476
643595 657702 429
163210 664464 509
187104 753806 509
429890 564788 470
770481 287133 509
694954 749381 504
506661 904718 525
250235 38032 443
630636 774437 504
936300 775831 525
496184 418076 444
874036 575409 525
281224 245282 407
57315 82359 351
100417 305233 443
754869 416111 509
880644 944682 507
841430 629961 525
774638 881884 525
952675 43716 525
573919 447596 470
969736 144641 525
721515 522575 509
169033 909115 525
422806 450918 418
533767 248402 470
165735 350117 443
8452 238204 443
436212 465195 444
93514 226410 386
384821 127263 443
711288 580165 509
811969 281465 509
71178 320030 443
19908 292982 443
712579 557930 509
732664 141974 509
685791 726199 504
843906 904916 445
530681 841342 525
772078 841375 525
833269 671888 504
875644 179747 525
36859 906634 525
559391 962327 525
655701 636366 416
80906 71204 351
323526 139401 443
783922 548620 509
882927 293686 525
152702 788350 509
419402 996221 525
347798 208215 443
873781 353034 525
820107 275790 509
655911 27254 509
348684 969893 525
98761 738898 509
839572 733316 525
224944 476580 449
98695 802692 509
464043 713107 509
427026 459229 400
599420 419663 470
659735 193551 509
155893 672013 509
915694 861882 476
843796 281546 525
719620 515611 509
227398 130957 386
374297 865944 525
724334 310154 509
101983 292075 443
780526 123145 509
942014 266713 525
580015 613259 434
810416 273557 509
136284 732751 509
681991 752987 504
31633 823811 509
547569 464996 470
731797 981814 525
811455 757411 468
279026 631689 509
154481 867326 525
561460 602157 434
282229 200762 443
617289 639655 509
101041 803098 509
915911 981233 507
756990 380787 509
578918 197822 470
387576 425539 449
136171 67529 354
940047 613366 525
257732 554240 470
852507 530157 525
660213 222451 509
561560 866481 525
786920 911822 525
46072 339455 443
472621 182074 449
95631 614006 470
321879 881703 525
448681 561558 470
402628 335622 441
954770 913501 507
364389 912849 525
409119 986249 525
577216 661178 509
158031 234146 443
735239 110240 509
52433 193591 383
933190 240886 525
888301 336919 525
114520 961599 525
726718 876743 525
798171 899020 525
163089 872595 525
979731 767918 525
434963 163013 449
772514 24249 509
437107 674074 509
534925 679835 509
929897 245271 525
773933 998906 525
893222 395035 525
849705 469736 525
159203 426297 449
761460 923439 525
